{
	"id": "f735a6d1-94e2-ecf4-ea20-678b1b64fe7b",
	"name": "teste_leroy",
	"description": "",
	"order": [
		"544b16fb-4296-696b-7a3d-ad9f6e23a2f7",
		"57a40b5f-df91-348d-4080-384fb6cc4466",
		"4ae7c77d-03fb-f483-aaca-0633172aae27",
		"cf7684f2-14a8-957f-93a7-a649f2a342f1"
	],
	"folders": [],
	"folders_order": [],
	"timestamp": 1510241032849,
	"owner": "1484242",
	"public": false,
	"requests": [
		{
			"id": "4ae7c77d-03fb-f483-aaca-0633172aae27",
			"headers": "Content-Type: application/json\n",
			"headerData": [
				{
					"key": "Content-Type",
					"value": "application/json",
					"description": "",
					"enabled": true
				}
			],
			"url": "localhost:8000/api/alter-products/2",
			"queryParams": [],
			"preRequestScript": null,
			"pathVariables": {},
			"pathVariableData": [],
			"method": "PUT",
			"data": [],
			"dataMode": "raw",
			"tests": null,
			"currentHelper": "normal",
			"helperAttributes": {},
			"time": 1510249793917,
			"name": "localhost:8000/api/alter-products/2",
			"description": "",
			"collectionId": "f735a6d1-94e2-ecf4-ea20-678b1b64fe7b",
			"responses": [],
			"rawModeData": "{\n\t\"lm\":112\n\t,\"price\": 1212.11\n\t, \"name\": \"furadeira Alterada\"\n}"
		},
		{
			"id": "544b16fb-4296-696b-7a3d-ad9f6e23a2f7",
			"headers": "//Content-Type: text/html\n",
			"headerData": [
				{
					"key": "Content-Type",
					"value": "text/html",
					"description": "",
					"enabled": false
				}
			],
			"url": "localhost:8000/api/import-excel",
			"queryParams": [],
			"pathVariables": {},
			"pathVariableData": [],
			"preRequestScript": null,
			"method": "POST",
			"collectionId": "f735a6d1-94e2-ecf4-ea20-678b1b64fe7b",
			"data": [
				{
					"key": "size",
					"value": "original",
					"description": "",
					"type": "text",
					"enabled": true
				},
				{
					"key": "file",
					"value": "",
					"description": "",
					"type": "file",
					"enabled": true
				}
			],
			"dataMode": "params",
			"name": "localhost:8000/api/import-excel",
			"description": "",
			"descriptionFormat": "html",
			"time": 1510241156812,
			"version": 2,
			"responses": [],
			"tests": null,
			"currentHelper": "normal",
			"helperAttributes": {}
		},
		{
			"folder": null,
			"id": "57a40b5f-df91-348d-4080-384fb6cc4466",
			"name": "localhost:8000/api/get-products",
			"dataMode": "params",
			"data": null,
			"rawModeData": null,
			"descriptionFormat": "html",
			"description": "",
			"headers": "",
			"method": "GET",
			"pathVariables": {},
			"url": "localhost:8000/api/get-products",
			"preRequestScript": null,
			"tests": null,
			"currentHelper": "normal",
			"helperAttributes": {},
			"queryParams": [],
			"headerData": [],
			"pathVariableData": [],
			"collectionId": "f735a6d1-94e2-ecf4-ea20-678b1b64fe7b"
		},
		{
			"id": "cf7684f2-14a8-957f-93a7-a649f2a342f1",
			"headers": "",
			"headerData": [],
			"url": "localhost:8000/api/delete-products/1",
			"queryParams": [],
			"pathVariables": {},
			"pathVariableData": [],
			"preRequestScript": null,
			"method": "DELETE",
			"collectionId": "f735a6d1-94e2-ecf4-ea20-678b1b64fe7b",
			"data": null,
			"dataMode": "params",
			"name": "localhost:8000/api/delete-products/1",
			"description": "",
			"descriptionFormat": "html",
			"time": 1510252714715,
			"version": 2,
			"responses": [],
			"tests": null,
			"currentHelper": "normal",
			"helperAttributes": {}
		}
	]
}